^C:\USERS\ВЕЛИКИЙ\DESKTOP\С++\13\CONSOLEAPPLICATION1\CONSOLEAPPLICATION1\CONSOLEAPPLICATION1.CPP
C:\USERS\Великий\DESKTOP\с++\13\CONSOLEAPPLICATION1\CONSOLEAPPLICATION1\DEBUG\VC142.PDB
C:\USERS\Великий\DESKTOP\с++\13\CONSOLEAPPLICATION1\CONSOLEAPPLICATION1\DEBUG\VC142.IDB
C:\USERS\Великий\DESKTOP\с++\13\CONSOLEAPPLICATION1\CONSOLEAPPLICATION1\DEBUG\CONSOLEAPPLICATION1.OBJ
